date;tariff;A+;A-;|A|;R+;R-;
01-05-2017 00:00:00;T1;201.759800;0.000000;201.759800;172.407100;0.000000;
01-05-2017 00:00:00;T2;230.367500;0.000000;230.367500;196.852400;0.000000;
01-05-2017 00:00:00;T3;259.208300;0.000000;259.208300;221.493900;0.000000;
01-05-2017 00:00:00;T4;0.000000;0.000000;0.000000;0.000000;0.000000;
01-05-2017 00:00:00;T5;0.000000;0.000000;0.000000;0.000000;0.000000;
01-05-2017 00:00:00;T6;0.000000;0.000000;0.000000;0.000000;0.000000;
01-05-2017 00:00:00;T7;0.000000;0.000000;0.000000;0.000000;0.000000;
01-05-2017 00:00:00;T8;0.000000;0.000000;0.000000;0.000000;0.000000;
01-05-2017 00:00:00;Summ T;691.335600;0.000000;691.335600;590.753400;0.000000;
02-05-2017 00:00:00;T1;203.435800;0.000000;203.435800;173.839200;0.000000;
02-05-2017 00:00:00;T2;232.291300;0.000000;232.291300;198.496300;0.000000;
02-05-2017 00:00:00;T3;261.365200;0.000000;261.365200;223.337000;0.000000;
02-05-2017 00:00:00;T4;0.000000;0.000000;0.000000;0.000000;0.000000;
02-05-2017 00:00:00;T5;0.000000;0.000000;0.000000;0.000000;0.000000;
02-05-2017 00:00:00;T6;0.000000;0.000000;0.000000;0.000000;0.000000;
02-05-2017 00:00:00;T7;0.000000;0.000000;0.000000;0.000000;0.000000;
02-05-2017 00:00:00;T8;0.000000;0.000000;0.000000;0.000000;0.000000;
02-05-2017 00:00:00;Summ T;697.092300;0.000000;697.092300;595.672500;0.000000;
03-05-2017 00:00:00;T1;205.126400;0.000000;205.126400;175.283700;0.000000;
03-05-2017 00:00:00;T2;234.215000;0.000000;234.215000;200.140200;0.000000;
03-05-2017 00:00:00;T3;263.507500;0.000000;263.507500;225.167700;0.000000;
03-05-2017 00:00:00;T4;0.000000;0.000000;0.000000;0.000000;0.000000;
03-05-2017 00:00:00;T5;0.000000;0.000000;0.000000;0.000000;0.000000;
03-05-2017 00:00:00;T6;0.000000;0.000000;0.000000;0.000000;0.000000;
03-05-2017 00:00:00;T7;0.000000;0.000000;0.000000;0.000000;0.000000;
03-05-2017 00:00:00;T8;0.000000;0.000000;0.000000;0.000000;0.000000;
03-05-2017 00:00:00;Summ T;702.848900;0.000000;702.848900;600.591600;0.000000;
04-05-2017 00:00:00;T1;206.802300;0.000000;206.802300;176.715800;0.000000;
04-05-2017 00:00:00;T2;262.269500;0.000000;262.269500;224.113000;0.000000;
04-05-2017 00:00:00;T3;265.664500;0.000000;265.664500;227.010900;0.000000;
04-05-2017 00:00:00;T4;0.000000;0.000000;0.000000;0.000000;0.000000;
04-05-2017 00:00:00;T5;0.000000;0.000000;0.000000;0.000000;0.000000;
04-05-2017 00:00:00;T6;0.000000;0.000000;0.000000;0.000000;0.000000;
04-05-2017 00:00:00;T7;0.000000;0.000000;0.000000;0.000000;0.000000;
04-05-2017 00:00:00;T8;0.000000;0.000000;0.000000;0.000000;0.000000;
04-05-2017 00:00:00;Summ T;734.736300;0.000000;734.736300;627.839700;0.000000;
05-05-2017 00:00:00;T1;574.148600;0.000000;574.148600;490.617000;0.000000;
05-05-2017 00:00:00;T2;682.095900;0.000000;682.095900;582.859000;0.000000;
05-05-2017 00:00:00;T3;737.971000;0.000000;737.971000;630.601700;0.000000;
05-05-2017 00:00:00;T4;0.000000;0.000000;0.000000;0.000000;0.000000;
05-05-2017 00:00:00;T5;0.000000;0.000000;0.000000;0.000000;0.000000;
05-05-2017 00:00:00;T6;0.000000;0.000000;0.000000;0.000000;0.000000;
05-05-2017 00:00:00;T7;0.000000;0.000000;0.000000;0.000000;0.000000;
05-05-2017 00:00:00;T8;0.000000;0.000000;0.000000;0.000000;0.000000;
05-05-2017 00:00:00;Summ T;1994.215500;0.000000;1994.215500;1704.077700;0.000000;
06-05-2017 00:00:00;T1;868.392900;0.000000;868.392900;742.051800;0.000000;
06-05-2017 00:00:00;T2;1049.442200;0.000000;1049.442200;896.760200;0.000000;
06-05-2017 00:00:00;T3;1105.317300;0.000000;1105.317300;944.502900;0.000000;
06-05-2017 00:00:00;T4;0.000000;0.000000;0.000000;0.000000;0.000000;
06-05-2017 00:00:00;T5;0.000000;0.000000;0.000000;0.000000;0.000000;
06-05-2017 00:00:00;T6;0.000000;0.000000;0.000000;0.000000;0.000000;
06-05-2017 00:00:00;T7;0.000000;0.000000;0.000000;0.000000;0.000000;
06-05-2017 00:00:00;T8;0.000000;0.000000;0.000000;0.000000;0.000000;
06-05-2017 00:00:00;Summ T;3023.152400;0.000000;3023.152400;2583.314900;0.000000;
07-05-2017 00:00:00;T1;;;0.000000;;;
07-05-2017 00:00:00;T2;;;0.000000;;;
07-05-2017 00:00:00;T3;;;0.000000;;;
07-05-2017 00:00:00;T4;;;0.000000;;;
07-05-2017 00:00:00;T5;;;0.000000;;;
07-05-2017 00:00:00;T6;;;0.000000;;;
07-05-2017 00:00:00;T7;;;0.000000;;;
07-05-2017 00:00:00;T8;;;0.000000;;;
07-05-2017 00:00:00;Summ T;0.000000;0.000000;0.000000;0.000000;0.000000;
